# -*- coding: utf-8 mode: shell-script -*-
# $Id$

CalculationMode = gs
fromScratch = yes
ConvRelDens = 1e-6

BoxShape = minimum
Spacing = 0.4
Radius = 6

%Coordinates
  "H"  | 0 | 0 | 0.053910
  "Li" | 0 | 0 | 3.058523
%
MixField = density
